%YAML 1.1
%TAG !u! tag:unity3d.com,2011:
--- !u!1045 &1
EditorBuildSettings:
  m_ObjectHideFlags: 0
  serializedVersion: 2
  m_Scenes:
  - enabled: 1
    path: Assets/Scenes/MainMenu.unity
    guid: 2cda990e2423bbf4892e6590ba056729
  - enabled: 1
    path: Assets/Scenes/Tutorial.unity
    guid: ee2f5feb8207bfa4496343ad3b8a1740
  - enabled: 1
    path: Assets/Scenes/MainLevel.unity
    guid: d08986756a894484691b45ea6c1226a2
  - enabled: 1
    path: Assets/Scenes/EndScreen01.unity
    guid: 93977ab746e556648bf1ab0b84251c5e
  - enabled: 1
    path: Assets/Scenes/EndScreen02.unity
    guid: 95c3b4aaafdd46a4a8e935f57f91f780
  - enabled: 0
    path: 
    guid: 00000000000000000000000000000000
  m_configObjects: {}
